see-quarto-modulo3 - Módulo 3: Introducción al tidyverse
…
En esta variable genus_vore vemos que la información de dos cosas se encuentran separadas por el caracter -. Veamos entonces como podemos separarlas en dos columnas distintas con la ayuda de tidyr:

library(tidyr)
ej_separate %>%
  separate(`genus_vore`,
           into = c("genus", "vore"), sep = "-")

# A tibble: 83 × 3
   name                       genus       vore 
   <chr>                      <chr>       <chr>
 1 Cheetah                    Acinonyx    carni
 2 Owl monkey                 Aotus       omni 
 3 Mountain beaver            Aplodontia  herbi
 4 Greater short-tailed shrew Blarina     omni 
 5 Cow                        Bos         herbi
 6 Three-toed sloth           Bradypus    herbi
 7 Northern fur seal          Callorhinus carni
 8 Vesper mouse               Calomys     NA   
 9 Dog                        Canis       carni
10 Roe deer                   Capreolus   herbi
# ℹ 73 more rows
Combinando columnas

ej_separate %>%
  separate(`genus_vore`,
           into = c("genus", "vore"), sep = "-") %>%
  unite(new_genus_vore, genus, vore, sep = "_")

Combinando columnas

ej_separate %>%
  separate(`genus_vore`,
           into = c("genus", "vore"), sep = "-") %>%
  unite(new_genus_vore, genus, vore, sep = "_")

# A tibble: 83 × 2
   name                       new_genus_vore   
   <chr>                      <chr>            
 1 Cheetah                    Acinonyx_carni   
 2 Owl monkey                 Aotus_omni       
 3 Mountain beaver            Aplodontia_herbi 
 4 Greater short-tailed shrew Blarina_omni     
 5 Cow                        Bos_herbi        
 6 Three-toed sloth           Bradypus_herbi   
 7 Northern fur seal          Callorhinus_carni
 8 Vesper mouse               Calomys_NA       
 9 Dog                        Canis_carni      
10 Roe deer                   Capreolus_herbi  
# ℹ 73 more rows
…
tidyverse

library(readr)
ranas <- read_csv("datos/touchon.csv")
ranas

Importando archivos .csv

tidyverse

library(readr)
ranas <- read_csv("datos/touchon.csv")
ranas

# A tibble: 78 × 12
   Block Tank.Unique Pred  Hatch Res   Age.DPO Age.FromEmergence SVL.initial
   <dbl>       <dbl> <chr> <chr> <chr>   <dbl>             <dbl>       <dbl>
 1     1           1 NL    L     Hi       47.2              13.2        19.4
 2     1           2 C     E     Hi       45.4              11.4        18.4
 3     1           3 C     L     Hi       53.8              19.8        18.9
 4     1           4 L     L     Lo       56.9              22.9        18.8
 5     1           5 NL    E     Hi       64.8              30.8        19.7
 6     1           6 L     E     Hi       44                10          21.5
 7     1           7 NL    L     Lo       67.7              33.7        19.0
 8     1           8 C     E     Lo       95.9              61.9        17.9
 9     1           9 L     L     Hi       45.2              11.2        21.3
10     1          10 C     L     Lo       64.9              30.9        18.9
# ℹ 68 more rows
# ℹ 4 more variables: Tail.initial <dbl>, SVL.final <dbl>, Mass.final <dbl>,
#   Resorb.days <dbl>
…
Usaremos el archivo rotXLS.xlsx y el paquete readxl

library(readxl)
rotavirus <- read_excel("datos/rotXLS.xlsx")
rotavirus

Importando archivos de Excel

Usaremos el archivo rotXLS.xlsx y el paquete readxl

library(readxl)
rotavirus <- read_excel("datos/rotXLS.xlsx")
rotavirus

# A tibble: 1,043 × 12
   date                cases  week incidence    FM     RSK SHK_TAG    PM    TMK
   <dttm>              <dbl> <dbl>     <dbl> <dbl>   <dbl>   <dbl> <dbl>  <dbl>
 1 2001-01-07 00:00:00     0    14      0     3.35 0           0   1003.  3.86 
 2 2001-01-14 00:00:00     8    15      0.23  1.65 0           0   1029. -2.35 
 3 2001-01-21 00:00:00    12    16      0.34  3.15 0.0545      0.2 1018. -0.364
 4 2001-01-28 00:00:00    59    17      1.69  5.98 3.75        0    992.  2.47 
 5 2001-02-04 00:00:00    55    18      1.57  5.88 6.39        3.3  999. -4.92 
 6 2001-02-11 00:00:00    76    19      2.17  4.68 0.218       0   1024.  6.29 
 7 2001-02-18 00:00:00    92    20      2.63  5.18 0.00909     0   1023.  2.88 
 8 2001-02-25 00:00:00    87    21      2.49  3.92 0.0545     11.2 1000. -2.49 
 9 2001-03-04 00:00:00   103    22      2.95  3.72 3.37        2.3  991. -0.109
10 2001-03-11 00:00:00   110    23      3.15  3.48 0.664       0    998.  9.65 
# ℹ 1,033 more rows
# ℹ 3 more variables: TXK <dbl>, TNK <dbl>, UPM <dbl>
…
Transformación de formatos

De formato ancho a largo

Utilizaremos la función pivot_longer del paquete tidyr con la tabla de base air_quality

library(dplyr)
library(tidyr)

tabla_larga <- airquality %>%
  pivot_longer(everything())

tabla_larga

# A tibble: 918 × 2
   name    value
   <chr>   <dbl>
 1 Ozone    41  
 2 Solar.R 190  
 3 Wind      7.4
 4 Temp     67  
 5 Month     5  
 6 Day       1  
 7 Ozone    36  
 8 Solar.R 118  
 9 Wind      8  
10 Temp     72  
# ℹ 908 more rows
…
De formato ancho a largo

Utilizaremos la función pivot_longer del paquete tidyr con la tabla de base air_quality

Podemos asignar nombres.

Mantener columnas en la transformación.

tabla_larga <- airquality %>%
  pivot_longer(c(Ozone, Solar.R, Wind, Temp), 
               names_to = "variable", values_to = "valores")

tabla_larga

# A tibble: 612 × 4
   Month   Day variable valores
   <int> <int> <chr>      <dbl>
 1     5     1 Ozone       41  
 2     5     1 Solar.R    190  
 3     5     1 Wind         7.4
 4     5     1 Temp        67  
 5     5     2 Ozone       36  
 6     5     2 Solar.R    118  
 7     5     2 Wind         8  
 8     5     2 Temp        72  
 9     5     3 Ozone       12  
10     5     3 Solar.R    149  
# ℹ 602 more rows
…
Transformación de formatos

De formato largo a ancho

Utilizaremos la función pivot_wider

tabla_ancha <- tabla_larga %>%
  pivot_wider(names_from = "variable",
              values_from = "valores")

tabla_ancha

# A tibble: 153 × 6
   Month   Day Ozone Solar.R  Wind  Temp
   <int> <int> <dbl>   <dbl> <dbl> <dbl>
 1     5     1    41     190   7.4    67
 2     5     2    36     118   8      72
 3     5     3    12     149  12.6    74
 4     5     4    18     313  11.5    62
 5     5     5    NA      NA  14.3    56
 6     5     6    28      NA  14.9    66
 7     5     7    23     299   8.6    65
 8     5     8    19      99  13.8    59
 9     5     9     8      19  20.1    61
10     5    10    NA     194   8.6    69
# ℹ 143 more rows
…
